<svg width="36" height="36" viewBox="0 0 36 36" fill="none" xmlns="http://www.w3.org/2000/svg">
<path d="M36 0H0V35.8945H36V0Z" fill="#FFC700"/>
<path d="M18.0019 22.5628C20.5595 22.5628 22.6328 20.4956 22.6328 17.9455C22.6328 15.3955 20.5595 13.3282 18.0019 13.3282C15.4444 13.3282 13.3711 15.3955 13.3711 17.9455C13.3711 20.4956 15.4444 22.5628 18.0019 22.5628Z" fill="white"/>
</svg>
